[
    {
        "username":"admin",
        "password":"Fps@2022"
    },
    {
        "username":"admin",
        "password":"SomePassword2023"
    },
    {
        "username":"Dindin.saprudin",
        "password":"Finansia@123"
    }
]